{
  "getCountCheckInOutChildren" : {
    "transaction" : "getCountCheckInOutChildren",
    "sampleCount" : 560,
    "errorCount" : 0,
    "errorPct" : 0.0,
    "meanResTime" : 2682.578571428572,
    "medianResTime" : 2278.5,
    "minResTime" : 235.0,
    "maxResTime" : 8678.0,
    "pct1ResTime" : 5252.200000000002,
    "pct2ResTime" : 6408.849999999996,
    "pct3ResTime" : 7853.579999999997,
    "throughput" : 1.8517844919662314,
    "receivedKBytesPerSec" : 1.170023990529445,
    "sentKBytesPerSec" : 2.2912216321496244
  },
  "getLatestMobileVersion" : {
    "transaction" : "getLatestMobileVersion",
    "sampleCount" : 22338,
    "errorCount" : 0,
    "errorPct" : 0.0,
    "meanResTime" : 66.73148894260903,
    "medianResTime" : 47.0,
    "minResTime" : 10.0,
    "maxResTime" : 1392.0,
    "pct1ResTime" : 126.0,
    "pct2ResTime" : 168.0,
    "pct3ResTime" : 292.9900000000016,
    "throughput" : 74.44883267509873,
    "receivedKBytesPerSec" : 49.80219763910413,
    "sentKBytesPerSec" : 54.89147331025346
  },
  "findAllConfigByCategory" : {
    "transaction" : "findAllConfigByCategory",
    "sampleCount" : 1069,
    "errorCount" : 0,
    "errorPct" : 0.0,
    "meanResTime" : 1408.0037418147783,
    "medianResTime" : 646.0,
    "minResTime" : 38.0,
    "maxResTime" : 7731.0,
    "pct1ResTime" : 3767.0,
    "pct2ResTime" : 4794.0,
    "pct3ResTime" : 7074.899999999999,
    "throughput" : 3.5382471609621122,
    "receivedKBytesPerSec" : 4.0012599730411385,
    "sentKBytesPerSec" : 4.595574925858993
  },
  "getNotifications" : {
    "transaction" : "getNotifications",
    "sampleCount" : 296,
    "errorCount" : 0,
    "errorPct" : 0.0,
    "meanResTime" : 5092.6047297297255,
    "medianResTime" : 5440.5,
    "minResTime" : 139.0,
    "maxResTime" : 11509.0,
    "pct1ResTime" : 8477.0,
    "pct2ResTime" : 8616.8,
    "pct3ResTime" : 9794.239999999994,
    "throughput" : 0.9781728656168933,
    "receivedKBytesPerSec" : 8.132017192379504,
    "sentKBytesPerSec" : 1.0880262636109779
  },
  "getHomefeed" : {
    "transaction" : "getHomefeed",
    "sampleCount" : 211,
    "errorCount" : 0,
    "errorPct" : 0.0,
    "meanResTime" : 7142.042654028435,
    "medianResTime" : 7612.0,
    "minResTime" : 1127.0,
    "maxResTime" : 16532.0,
    "pct1ResTime" : 9571.800000000001,
    "pct2ResTime" : 9930.8,
    "pct3ResTime" : 15756.759999999995,
    "throughput" : 0.6972164212641095,
    "receivedKBytesPerSec" : 8.495282507922163,
    "sentKBytesPerSec" : 3.4888056079661105
  },
  "Total" : {
    "transaction" : "Total",
    "sampleCount" : 26888,
    "errorCount" : 0,
    "errorPct" : 0.0,
    "meanResTime" : 559.5095953585228,
    "medianResTime" : 56.0,
    "minResTime" : 10.0,
    "maxResTime" : 16896.0,
    "pct1ResTime" : 1367.2000000000116,
    "pct2ResTime" : 3841.5500000000065,
    "pct3ResTime" : 8513.0,
    "throughput" : 88.82839548590005,
    "receivedKBytesPerSec" : 184.84086615056853,
    "sentKBytesPerSec" : 81.09828012263128
  },
  "me" : {
    "transaction" : "me",
    "sampleCount" : 549,
    "errorCount" : 0,
    "errorPct" : 0.0,
    "meanResTime" : 2743.0218579234984,
    "medianResTime" : 2154.0,
    "minResTime" : 88.0,
    "maxResTime" : 8290.0,
    "pct1ResTime" : 6316.0,
    "pct2ResTime" : 7402.5,
    "pct3ResTime" : 8155.5,
    "throughput" : 1.8166115727091336,
    "receivedKBytesPerSec" : 2.3939871739033323,
    "sentKBytesPerSec" : 5.756742727969862
  },
  "findAllChildrenByParent" : {
    "transaction" : "findAllChildrenByParent",
    "sampleCount" : 535,
    "errorCount" : 0,
    "errorPct" : 0.0,
    "meanResTime" : 2815.6542056074777,
    "medianResTime" : 1935.0,
    "minResTime" : 95.0,
    "maxResTime" : 8706.0,
    "pct1ResTime" : 6824.200000000001,
    "pct2ResTime" : 8006.8,
    "pct3ResTime" : 8442.119999999999,
    "throughput" : 1.7701867464298475,
    "receivedKBytesPerSec" : 1.9880026937444577,
    "sentKBytesPerSec" : 2.8281499191008113
  },
  "getAllClassInfo" : {
    "transaction" : "getAllClassInfo",
    "sampleCount" : 199,
    "errorCount" : 0,
    "errorPct" : 0.0,
    "meanResTime" : 7578.281407035179,
    "medianResTime" : 8499.0,
    "minResTime" : 126.0,
    "maxResTime" : 16896.0,
    "pct1ResTime" : 10630.0,
    "pct2ResTime" : 13590.0,
    "pct3ResTime" : 16634.0,
    "throughput" : 0.6575621297082606,
    "receivedKBytesPerSec" : 1.8894649728383885,
    "sentKBytesPerSec" : 1.6882137099638836
  },
  "findAllSchoolConfig" : {
    "transaction" : "findAllSchoolConfig",
    "sampleCount" : 956,
    "errorCount" : 0,
    "errorPct" : 0.0,
    "meanResTime" : 1572.2489539748942,
    "medianResTime" : 916.0,
    "minResTime" : 46.0,
    "maxResTime" : 7873.0,
    "pct1ResTime" : 3769.5000000000023,
    "pct2ResTime" : 4928.799999999999,
    "pct3ResTime" : 6548.939999999992,
    "throughput" : 3.1644417375300806,
    "receivedKBytesPerSec" : 69.01202429933764,
    "sentKBytesPerSec" : 2.3207966258643458
  },
  "getChildCheckInCheckOut" : {
    "transaction" : "getChildCheckInCheckOut",
    "sampleCount" : 175,
    "errorCount" : 0,
    "errorPct" : 0.0,
    "meanResTime" : 8618.411428571426,
    "medianResTime" : 8621.0,
    "minResTime" : 2447.0,
    "maxResTime" : 13356.0,
    "pct1ResTime" : 10120.2,
    "pct2ResTime" : 11750.8,
    "pct3ResTime" : 13289.880000000001,
    "throughput" : 0.5781645423249483,
    "receivedKBytesPerSec" : 38.54900793675375,
    "sentKBytesPerSec" : 2.660460276792145
  }
}